Tidy Evaluation
…
#> Warning in min(birth_year, na.rm = TRUE): no non-missing arguments to min;
#> returning Inf

#> Warning in min(birth_year, na.rm = TRUE): no non-missing arguments to min;
#> returning Inf

#> Warning in min(birth_year, na.rm = TRUE): no non-missing arguments to min;
#> returning Inf

#> Warning in min(birth_year, na.rm = TRUE): no non-missing arguments to min;
#> returning Inf

#> # A tibble: 38 × 2
#>    species   birth_year_min
#>    <chr>              <dbl>
#>  1 Aleena               Inf
#>  2 Besalisk             Inf
#>  3 Cerean                92
#>  4 Chagrian             Inf
#>  5 Clawdite             Inf
#>  6 Droid                 15
#>  7 Dug                  Inf
#>  8 Ewok                   8
#>  9 Geonosian            Inf
#> 10 Gungan                52
#> # … with 28 more rows
…
#> Warning in min(birth_year, na.rm = TRUE): no non-missing arguments to min;
#> returning Inf

#> Warning in min(birth_year, na.rm = TRUE): no non-missing arguments to min;
#> returning Inf

#> Warning in min(birth_year, na.rm = TRUE): no non-missing arguments to min;
#> returning Inf

#> Warning in min(birth_year, na.rm = TRUE): no non-missing arguments to min;
#> returning Inf

#> # A tibble: 38 × 2
#>    species   birth_year_min
#>    <chr>              <dbl>
#>  1 Aleena               Inf
#>  2 Besalisk             Inf
#>  3 Cerean                92
#>  4 Chagrian             Inf
#>  5 Clawdite             Inf
#>  6 Droid                 15
#>  7 Dug                  Inf
#>  8 Ewok                   8
#>  9 Geonosian            Inf
#> 10 Gungan                52
#> # … with 28 more rows
…
